../Core/Src/main.c:210:6:ddsFunction	8	static
../Core/Src/main.c:224:6:HAL_TIM_PeriodElapsedCallback	16	static
../Core/Src/main.c:235:5:main	8	static
../Core/Src/main.c:288:6:SystemClock_Config	88	static
../Core/Src/main.c:334:13:MX_DAC_Init	16	static
../Core/Src/main.c:374:13:MX_I2C1_Init	8	static
../Core/Src/main.c:408:13:MX_I2S3_Init	8	static
../Core/Src/main.c:442:13:MX_TIM2_Init	32	static
../Core/Src/main.c:485:13:MX_DMA_Init	16	static
../Core/Src/main.c:503:13:MX_GPIO_Init	56	static
../Core/Src/main.c:606:6:Error_Handler	4	static,ignoring_inline_asm
