../Core/Src/main.c:197:5:main	16	static
../Core/Src/main.c:247:6:SystemClock_Config	88	static
../Core/Src/main.c:294:13:MX_DAC_Init	16	static
../Core/Src/main.c:334:13:MX_TIM2_Init	32	static
../Core/Src/main.c:377:13:MX_DMA_Init	16	static
../Core/Src/main.c:395:13:MX_GPIO_Init	56	static
../Core/Src/main.c:496:6:Error_Handler	4	static,ignoring_inline_asm
